{
    "type": "minecraft:crafting_shaped",
    "pattern": [
        "ccc",
        "sss",
        "ccc"
    ],
    "key": {
        "c": {
            "type": "forge:ore_dict",
            "ore": "ingotCopper"
        },
        "s": {
            "type": "forge:ore_dict",
            "ore": "ingotSilver"
        }
    },
    "result": {
        "item": "moarvents:hc",
        "count": 1
    }
}