{
    "type": "minecraft:crafting_shaped",
    "pattern": [
        "msm",
        " s ",
        " m "
    ],
    "key": {
        "m": {
            "item": "minecraft:iron_ingot"
        },
        "s": {
            "type": "forge:ore_dict",
            "ore": "dustStone"
        }
    },
    "result": {
        "item": "moarvents:membranliqheat",
        "count": 4
    }
}