{
    "type": "minecraft:crafting_shaped",
    "pattern": [
        "ccc",
        "msm",
        "ccc"
    ],
    "key": {
        "c": {
            "type": "forge:ore_dict",
            "ore": "ingotCopper"
        },
        "s": {
            "type": "forge:ore_dict",
            "ore": "ingotSilver"
        },
        "m": {
            "item": "moarvents:membrancomp"
        }
    },
    "result": {
        "item": "moarvents:rhb",
        "count": 1
    }
}