{
    "type": "minecraft:crafting_shaped",
    "pattern": [
        "iii",
        "iri",
        "ibi"
    ],
    "key": {
        "i": {
            "item": "minecraft:iron_ingot"
        },
        "r": {
            "item": "minecraft:redstone"
        },
        "b": {
            "item": "moarvents:membrancomp"
        }
    },
    "result": {
        "item": "moarvents:thermo",
        "count": 4
    }
}