{
    "type": "minecraft:crafting_shaped",
    "pattern": [
        "   ",
        " nc",
        "   "
    ],
    "key": {
        "c": {
            "item": "moarvents:membrancomp"
        },
        "n": {
            "item": "minecraft:gold_nugget"
        }
    },
    "result": {
        "item": "moarvents:ventowhr",
        "count": 2
    }
}